SA_BB,SinoatrialNode
SA_OS,SinoatrialNode
SA_RA,SinoatrialNode
SA_CT,SinoatrialNode
BB_LA,BachmannBundle
LA_LA1,LeftAtrium
RA_RA1,RightAtrium
RA1_CS,RightAtrium1
CT_CT1,CristaTerminalis
OS_Fast,Ostium
OS_Slow,Ostium
Fast_Fast1,Fast
Fast1_AV,Fast1
Slow_Slow1,Slow
Slow1_AV,Slow1
AV_His,AtrioventricularNode
His_His1,BundleOfHis
His1_His2,BundleOfHis1
His2_LBB,BundleOfHis2
LBB_LBB1,LeftBundleBranch
LBB1_LVA,LeftBundleBranch1
His2_RBB,BundleOfHis2
RBB_RBB1,RightBundleBranch
RBB1_RVA,RightBundleBranch1
LVA_LV,LeftVentricularApex
LV_LV1,LeftVentricle
LVA_LVS,LeftVentricularApex
LVS_LVS1,LeftVentricularSeptum
LVS1_CSLV,LeftVentricularSeptum1
RVA_RV,RightVentricularApex
RV_RV1,RightVentricle
RVA_RVS,RightVentricularApex
RVS_RVS1,RightVentricularSeptum