time,y1
0.,0.000000
1.,0.010000
2.,0.020000
3.,0.030000
4.,0.040000
5.,0.050000
6.,0.060000
7.,0.070000
8.,0.080000
9.,0.090000
10.,0.100000
11.,0.110000
12.,0.120000
13.,0.130000
14.,0.140000
15.,0.150000
16.,0.160000
17.,0.170000
18.,0.180000
19.,0.190000
20.,0.200000
21.,0.210000
22.,0.220000
23.,0.230000
24.,0.240000
25.,0.250000
26.,0.260000
27.,0.270000
28.,0.280000
29.,0.290000
30.,0.300000
31.,0.310000
32.,0.320000
33.,0.330000
34.,0.340000
35.,0.350000
36.,0.360000
37.,0.370000
38.,0.380000
39.,0.390000
40.,0.400000
41.,0.410000
42.,0.420000
43.,0.430000
44.,0.440000
45.,0.450000
46.,0.460000
47.,0.470000
48.,0.480000
49.,0.490000
50.,0.500000
51.,0.510000
52.,0.520000
53.,0.530000
54.,0.540000
55.,0.550000
56.,0.560000
57.,0.570000
58.,0.580000
59.,0.590000
60.,0.600000
61.,0.610000
62.,0.620000
63.,0.630000
64.,0.640000
65.,0.650000
66.,0.660000
67.,0.670000
68.,0.680000
69.,0.690000
70.,0.700000
71.,0.710000
72.,0.720000
73.,0.730000
74.,0.740000
75.,0.750000
76.,0.760000
77.,0.770000
78.,0.780000
79.,0.790000
80.,0.800000
81.,0.810000
82.,0.820000
83.,0.830000
84.,0.840000
85.,0.850000
86.,0.860000
87.,0.870000
88.,0.880000
89.,0.890000
90.,0.900000
91.,0.910000
92.,0.920000
93.,0.930000
94.,0.940000
95.,0.950000
96.,0.960000
97.,0.970000
98.,0.980000
99.,0.990000
100.,1.000000
101.,1.010000
102.,1.020000
103.,1.030000
104.,1.040000
105.,1.050000
106.,1.060000
107.,1.070000
108.,1.080000
109.,1.090000
110.,1.100000
111.,1.110000
112.,1.120000
113.,1.130000
114.,1.140000
115.,1.150000
116.,1.160000
117.,1.170000
118.,1.180000
119.,1.190000
120.,1.200000
121.,1.210000
122.,1.220000
123.,1.230000
124.,1.240000
125.,1.250000
126.,1.260000
127.,1.270000
128.,1.280000
129.,1.290000
130.,1.300000
131.,1.310000
132.,1.320000
133.,1.330000
134.,1.340000
135.,1.350000
136.,1.360000
137.,1.370000
138.,1.380000
139.,1.390000
140.,1.400000
141.,1.410000
142.,1.420000
143.,1.430000
144.,1.440000
145.,1.450000
146.,1.460000
147.,1.470000
148.,1.480000
149.,1.490000
150.,1.500000
151.,1.510000
152.,1.520000
153.,1.530000
154.,1.540000
155.,1.550000
156.,1.560000
157.,1.570000
158.,1.580000
159.,1.590000
160.,1.600000
161.,1.610000
162.,1.620000
163.,1.630000
164.,1.640000
165.,1.650000
166.,1.660000
167.,1.670000
168.,1.680000
169.,1.690000
170.,1.700000
171.,1.710000
172.,1.720000
173.,1.730000
174.,1.740000
175.,1.750000
176.,1.760000
177.,1.770000
178.,1.780000
179.,1.790000
180.,1.800000
181.,1.810000
182.,1.820000
183.,1.830000
184.,1.840000
185.,1.850000
186.,1.860000
187.,1.870000
188.,1.880000
189.,1.890000
190.,1.900000
191.,1.910000
192.,1.920000
193.,1.930000
194.,1.940000
195.,1.950000
196.,1.960000
197.,1.970000
198.,1.980000
199.,1.990000
200.,2.000000
201.,2.010000
202.,2.020000
203.,2.030000
204.,2.040000
205.,2.050000
206.,2.060000
207.,2.070000
208.,2.080000
209.,2.090000
210.,2.100000
211.,2.110000
212.,2.120000
213.,2.130000
214.,2.140000
215.,2.150000
216.,2.160000
217.,2.170000
218.,2.180000
219.,2.190000
220.,2.200000
221.,2.210000
222.,2.220000
223.,2.230000
224.,2.240000
225.,2.250000
226.,2.260000
227.,2.270000
228.,2.280000
229.,2.290000
230.,2.300000
231.,2.310000
232.,2.320000
233.,2.330000
234.,2.340000
235.,2.350000
236.,2.360000
237.,2.370000
238.,2.380000
239.,2.390000
240.,2.400000
241.,2.410000
242.,2.420000
243.,2.430000
244.,2.440000
245.,2.450000
246.,2.460000
247.,2.470000
248.,2.480000
249.,2.490000
250.,2.500000
251.,2.510000
252.,2.520000
253.,2.530000
254.,2.540000
255.,2.550000
256.,2.560000
257.,2.570000
258.,2.580000
259.,2.590000
260.,2.600000
261.,2.610000
262.,2.620000
263.,2.630000
264.,2.640000
265.,2.650000
266.,2.660000
267.,2.670000
268.,2.680000
269.,2.690000
270.,2.700000
271.,2.710000
272.,2.720000
273.,2.730000
274.,2.740000
275.,2.750000
276.,2.760000
277.,2.770000
278.,2.780000
279.,2.790000
280.,2.800000
281.,2.810000
282.,2.820000
283.,2.830000
284.,2.840000
285.,2.850000
286.,2.860000
287.,2.870000
288.,2.880000
289.,2.890000
290.,2.900000
291.,2.910000
292.,2.920000
293.,2.930000
294.,2.940000
295.,2.950000
296.,2.960000
297.,2.970000
298.,2.980000
299.,2.990000
300.,3.000000
301.,3.010000
302.,3.020000
303.,3.030000
304.,3.040000
305.,3.050000
306.,3.060000
307.,3.070000
308.,3.080000
309.,3.090000
310.,3.100000
311.,3.110000
312.,3.120000
313.,3.130000
314.,3.140000
315.,3.150000
316.,3.160000
317.,3.170000
318.,3.180000
319.,3.190000
320.,3.200000
321.,3.210000
322.,3.220000
323.,3.230000
324.,3.240000
325.,3.250000
326.,3.260000
327.,3.270000
328.,3.280000
329.,3.290000
330.,3.300000
331.,3.310000
332.,3.320000
333.,3.330000
334.,3.340000
335.,3.350000
336.,3.360000
337.,3.370000
338.,3.380000
339.,3.390000
340.,3.400000
341.,3.410000
342.,3.420000
343.,3.430000
344.,3.440000
345.,3.450000
346.,3.460000
347.,3.470000
348.,3.480000
349.,3.490000
350.,3.500000
351.,3.510000
352.,3.520000
353.,3.530000
354.,3.540000
355.,3.550000
356.,3.560000
357.,3.570000
358.,3.580000
359.,3.590000
360.,3.600000
361.,3.610000
362.,3.620000
363.,3.630000
364.,3.640000
365.,3.650000
366.,3.660000
367.,3.670000
368.,3.680000
369.,3.690000
370.,3.700000
371.,3.710000
372.,3.720000
373.,3.730000
374.,3.740000
375.,3.750000
376.,3.760000
377.,3.770000
378.,3.780000
379.,3.790000
380.,3.800000
381.,3.810000
382.,3.820000
383.,3.830000
384.,3.840000
385.,3.850000
386.,3.860000
387.,3.870000
388.,3.880000
389.,3.890000
390.,3.900000
391.,3.910000
392.,3.920000
393.,3.930000
394.,3.940000
395.,3.950000
396.,3.960000
397.,3.970000
398.,3.980000
399.,3.990000
400.,4.000000
401.,4.010000
402.,4.020000
403.,4.030000
404.,4.040000
405.,4.050000
406.,4.060000
407.,4.070000
408.,4.080000
409.,4.090000
410.,4.100000
411.,4.110000
412.,4.120000
413.,4.130000
414.,4.140000
415.,4.150000
416.,4.160000
417.,4.170000
418.,4.180000
419.,4.190000
420.,4.200000
421.,4.210000
422.,4.220000
423.,4.230000
424.,4.240000
425.,4.250000
426.,4.260000
427.,4.270000
428.,4.280000
429.,4.290000
430.,4.300000
431.,4.310000
432.,4.320000
433.,4.330000
434.,4.340000
435.,4.350000
436.,4.360000
437.,4.370000
438.,4.380000
439.,4.390000
440.,4.400000
441.,4.410000
442.,4.420000
443.,4.430000
444.,4.440000
445.,4.450000
446.,4.460000
447.,4.470000
448.,4.480000
449.,4.490000
450.,4.500000
451.,4.510000
452.,4.520000
453.,4.530000
454.,4.540000
455.,4.550000
456.,4.560000
457.,4.570000
458.,4.580000
459.,4.590000
460.,4.600000
461.,4.610000
462.,4.620000
463.,4.630000
464.,4.640000
465.,4.650000
466.,4.660000
467.,4.670000
468.,4.680000
469.,4.690000
470.,4.700000
471.,4.710000
472.,4.720000
473.,4.730000
474.,4.740000
475.,4.750000
476.,4.760000
477.,4.770000
478.,4.780000
479.,4.790000
480.,4.800000
481.,4.810000
482.,4.820000
483.,4.830000
484.,4.840000
485.,4.850000
486.,4.860000
487.,4.870000
488.,4.880000
489.,4.890000
490.,4.900000
491.,4.910000
492.,4.920000
493.,4.930000
494.,4.940000
495.,4.950000
496.,4.960000
497.,4.970000
498.,4.980000
499.,4.990000
500.,5.000000
501.,5.000000
502.,5.020000
503.,5.040000
504.,5.060000
505.,5.080000
506.,5.100000
507.,5.120000
508.,5.140000
509.,5.160000
510.,5.180000
511.,5.200000
512.,5.220000
513.,5.240000
514.,5.260000
515.,5.280000
516.,5.300000
517.,5.320000
518.,5.340000
519.,5.360000
520.,5.380000
521.,5.400000
522.,5.420000
523.,5.440000
524.,5.460000
525.,5.480000
526.,5.500000
527.,5.520000
528.,5.540000
529.,5.560000
530.,5.580000
531.,5.600000
532.,5.620000
533.,5.640000
534.,5.660000
535.,5.680000
536.,5.700000
537.,5.720000
538.,5.740000
539.,5.760000
540.,5.780000
541.,5.800000
542.,5.820000
543.,5.840000
544.,5.860000
545.,5.880000
546.,5.900000
547.,5.920000
548.,5.940000
549.,5.960000
550.,5.980000
551.,6.000000
552.,6.020000
553.,6.040000
554.,6.060000
555.,6.080000
556.,6.100000
557.,6.120000
558.,6.140000
559.,6.160000
560.,6.180000
561.,6.200000
562.,6.220000
563.,6.240000
564.,6.260000
565.,6.280000
566.,6.300000
567.,6.320000
568.,6.340000
569.,6.360000
570.,6.380000
571.,6.400000
572.,6.420000
573.,6.440000
574.,6.460000
575.,6.480000
576.,6.500000
577.,6.520000
578.,6.540000
579.,6.560000
580.,6.580000
581.,6.600000
582.,6.620000
583.,6.640000
584.,6.660000
585.,6.680000
586.,6.700000
587.,6.720000
588.,6.740000
589.,6.760000
590.,6.780000
591.,6.800000
592.,6.820000
593.,6.840000
594.,6.860000
595.,6.880000
596.,6.900000
597.,6.920000
598.,6.940000
599.,6.960000
600.,6.980000
601.,7.000000
602.,7.020000
603.,7.040000
604.,7.060000
605.,7.080000
606.,7.100000
607.,7.120000
608.,7.140000
609.,7.160000
610.,7.180000
611.,7.200000
612.,7.220000
613.,7.240000
614.,7.260000
615.,7.280000
616.,7.300000
617.,7.320000
618.,7.340000
619.,7.360000
620.,7.380000
621.,7.400000
622.,7.420000
623.,7.440000
624.,7.460000
625.,7.480000
626.,7.500000
627.,7.520000
628.,7.540000
629.,7.560000
630.,7.580000
631.,7.600000
632.,7.620000
633.,7.640000
634.,7.660000
635.,7.680000
636.,7.700000
637.,7.720000
638.,7.740000
639.,7.760000
640.,7.780000
641.,7.800000
642.,7.820000
643.,7.840000
644.,7.860000
645.,7.880000
646.,7.900000
647.,7.920000
648.,7.940000
649.,7.960000
650.,7.980000
651.,8.000000
652.,8.020000
653.,8.040000
654.,8.059999
655.,8.080000
656.,8.100000
657.,8.120000
658.,8.140000
659.,8.160000
660.,8.180000
661.,8.200000
662.,8.220000
663.,8.240000
664.,8.260000
665.,8.280000
666.,8.300000
667.,8.320000
668.,8.340000
669.,8.360000
670.,8.380000
671.,8.400000
672.,8.420000
673.,8.440000
674.,8.460000
675.,8.480000
676.,8.500000
677.,8.520000
678.,8.540000
679.,8.559999
680.,8.580000
681.,8.600000
682.,8.620000
683.,8.640000
684.,8.660000
685.,8.680000
686.,8.700000
687.,8.720000
688.,8.740000
689.,8.760000
690.,8.780000
691.,8.800000
692.,8.820000
693.,8.840000
694.,8.860000
695.,8.880000
696.,8.900000
697.,8.920000
698.,8.940000
699.,8.960000
700.,8.980000
701.,9.000000
702.,9.020000
703.,9.040000
704.,9.059999
705.,9.080000
706.,9.100000
707.,9.120000
708.,9.140000
709.,9.160000
710.,9.180000
711.,9.200000
712.,9.220000
713.,9.240000
714.,9.260000
715.,9.280000
716.,9.300000
717.,9.320000
718.,9.340000
719.,9.360000
720.,9.380000
721.,9.400000
722.,9.420000
723.,9.440000
724.,9.460000
725.,9.480000
726.,9.500000
727.,9.520000
728.,9.540000
729.,9.559999
730.,9.580000
731.,9.599999
732.,9.620000
733.,9.640000
734.,9.660000
735.,9.680000
736.,9.700000
737.,9.720000
738.,9.740000
739.,9.760000
740.,9.780000
741.,9.800000
742.,9.820000
743.,9.840000
744.,9.860000
745.,9.880000
746.,9.900000
747.,9.920000
748.,9.940000
749.,9.960000
750.,9.980000
751.,10.000000
752.,10.020000
753.,10.040000
754.,10.059999
755.,10.080000
756.,10.099999
757.,10.120000
758.,10.140000
759.,10.160000
760.,10.180000
761.,10.200000
762.,10.220000
763.,10.240000
764.,10.260000
765.,10.280000
766.,10.300000
767.,10.320000
768.,10.340000
769.,10.360000
770.,10.380000
771.,10.400000
772.,10.420000
773.,10.440000
774.,10.460000
775.,10.480000
776.,10.500000
777.,10.520000
778.,10.540000
779.,10.559999
780.,10.580000
781.,10.599999
782.,10.620000
783.,10.640000
784.,10.660000
785.,10.680000
786.,10.700000
787.,10.720000
788.,10.740000
789.,10.760000
790.,10.780000
791.,10.800000
792.,10.820000
793.,10.840000
794.,10.860000
795.,10.880000
796.,10.900000
797.,10.920000
798.,10.940000
799.,10.960000
800.,10.980000
801.,11.000000
802.,11.020000
803.,11.040000
804.,11.059999
805.,11.080000
806.,11.099999
807.,11.120000
808.,11.139999
809.,11.160000
810.,11.180000
811.,11.200000
812.,11.220000
813.,11.240000
814.,11.260000
815.,11.280000
816.,11.300000
817.,11.320000
818.,11.340000
819.,11.360000
820.,11.380000
821.,11.400000
822.,11.420000
823.,11.440000
824.,11.460000
825.,11.480000
826.,11.500000
827.,11.520000
828.,11.540000
829.,11.559999
830.,11.580000
831.,11.599999
832.,11.620000
833.,11.639999
834.,11.660000
835.,11.680000
836.,11.700000
837.,11.720000
838.,11.740000
839.,11.760000
840.,11.780000
841.,11.800000
842.,11.820000
843.,11.840000
844.,11.860000
845.,11.880000
846.,11.900000
847.,11.920000
848.,11.940000
849.,11.960000
850.,11.980000
851.,12.000000
852.,12.020000
853.,12.040000
854.,12.059999
855.,12.080000
856.,12.099999
857.,12.120000
858.,12.139999
859.,12.160000
860.,12.180000
861.,12.200000
862.,12.220000
863.,12.240000
864.,12.260000
865.,12.280000
866.,12.300000
867.,12.320000
868.,12.340000
869.,12.360000
870.,12.380000
871.,12.400000
872.,12.420000
873.,12.440000
874.,12.460000
875.,12.480000
876.,12.500000
877.,12.520000
878.,12.540000
879.,12.559999
880.,12.580000
881.,12.599999
882.,12.620000
883.,12.639999
884.,12.660000
885.,12.680000
886.,12.700000
887.,12.720000
888.,12.740000
889.,12.760000
890.,12.780000
891.,12.800000
892.,12.820000
893.,12.840000
894.,12.860000
895.,12.880000
896.,12.900000
897.,12.920000
898.,12.940000
899.,12.960000
900.,12.980000
901.,13.000000
902.,13.020000
903.,13.040000
904.,13.059999
905.,13.080000
906.,13.099999
907.,13.120000
908.,13.139999
909.,13.160000
910.,13.179999
911.,13.200000
912.,13.220000
913.,13.240000
914.,13.260000
915.,13.280000
916.,13.300000
917.,13.320000
918.,13.340000
919.,13.360000
920.,13.380000
921.,13.400000
922.,13.420000
923.,13.440000
924.,13.460000
925.,13.480000
926.,13.500000
927.,13.520000
928.,13.540000
929.,13.559999
930.,13.580000
931.,13.599999
932.,13.620000
933.,13.639999
934.,13.660000
935.,13.679999
936.,13.700000
937.,13.720000
938.,13.740000
939.,13.760000
940.,13.780000
941.,13.800000
942.,13.820000
943.,13.840000
944.,13.860000
945.,13.880000
946.,13.900000
947.,13.920000
948.,13.940000
949.,13.960000
950.,13.980000
951.,14.000000
952.,14.020000
953.,14.040000
954.,14.059999
955.,14.080000
956.,14.099999
957.,14.120000
958.,14.139999
959.,14.160000
960.,14.179999
961.,14.200000
962.,14.220000
963.,14.240000
964.,14.260000
965.,14.280000
966.,14.300000
967.,14.320000
968.,14.340000
969.,14.360000
970.,14.380000
971.,14.400000
972.,14.420000
973.,14.440000
974.,14.460000
975.,14.480000
976.,14.500000
977.,14.520000
978.,14.540000
979.,14.559999
980.,14.580000
981.,14.599999
982.,14.620000
983.,14.639999
984.,14.660000
985.,14.679999
986.,14.700000
987.,14.719999
988.,14.740000
989.,14.760000
990.,14.780000
991.,14.800000
992.,14.820000
993.,14.840000
994.,14.860000
995.,14.880000
996.,14.900000
997.,14.920000
998.,14.940000
999.,14.960000
1000.,14.980000
1001.,15.000000
1002.,15.000000
1003.,15.010000
1004.,15.020000
1005.,15.030000
1006.,15.040000
1007.,15.050000
1008.,15.060000
1009.,15.070000
1010.,15.080000
1011.,15.090000
1012.,15.100000
1013.,15.110000
1014.,15.120000
1015.,15.130000
1016.,15.140000
1017.,15.150000
1018.,15.160000
1019.,15.170000
1020.,15.180000
1021.,15.190000
1022.,15.200000
1023.,15.210000
1024.,15.220000
1025.,15.230000
1026.,15.240000
1027.,15.250000
1028.,15.260000
1029.,15.270000
1030.,15.280000
1031.,15.290000
1032.,15.300000
1033.,15.310000
1034.,15.320000
1035.,15.330000
1036.,15.340000
1037.,15.350000
1038.,15.360000
1039.,15.370000
1040.,15.380000
1041.,15.390000
1042.,15.400000
1043.,15.410000
1044.,15.420000
1045.,15.430000
1046.,15.440000
1047.,15.450000
1048.,15.460000
1049.,15.470000
1050.,15.480000
1051.,15.490000
1052.,15.500000
1053.,15.510000
1054.,15.520000
1055.,15.530000
1056.,15.540000
1057.,15.550000
1058.,15.560000
1059.,15.570000
1060.,15.580000
1061.,15.590000
1062.,15.600000
1063.,15.610000
1064.,15.620000
1065.,15.630000
1066.,15.640000
1067.,15.650000
1068.,15.660000
1069.,15.670000
1070.,15.680000
1071.,15.690000
1072.,15.700000
1073.,15.710000
1074.,15.720000
1075.,15.730000
1076.,15.740000
1077.,15.750000
1078.,15.760000
1079.,15.770000
1080.,15.780000
1081.,15.790000
1082.,15.800000
1083.,15.810000
1084.,15.820000
1085.,15.830000
1086.,15.840000
1087.,15.850000
1088.,15.860000
1089.,15.870000
1090.,15.880000
1091.,15.890000
1092.,15.900000
1093.,15.910000
1094.,15.920000
1095.,15.930000
1096.,15.940000
1097.,15.950000
1098.,15.960000
1099.,15.970000
1100.,15.980000
1101.,15.990000
1102.,16.000000
1103.,16.010000
1104.,16.020000
1105.,16.030001
1106.,16.040001
1107.,16.049999
1108.,16.059999
1109.,16.070000
1110.,16.080000
1111.,16.090000
1112.,16.100000
1113.,16.110001
1114.,16.120001
1115.,16.129999
1116.,16.139999
1117.,16.150000
1118.,16.160000
1119.,16.170000
1120.,16.180000
1121.,16.190001
1122.,16.200001
1123.,16.209999
1124.,16.219999
1125.,16.230000
1126.,16.240000
1127.,16.250000
1128.,16.260000
1129.,16.270000
1130.,16.280001
1131.,16.290001
1132.,16.299999
1133.,16.309999
1134.,16.320000
1135.,16.330000
1136.,16.340000
1137.,16.350000
1138.,16.360001
1139.,16.370001
1140.,16.379999
1141.,16.389999
1142.,16.400000
1143.,16.410000
1144.,16.420000
1145.,16.430000
1146.,16.440001
1147.,16.450001
1148.,16.459999
1149.,16.469999
1150.,16.480000
1151.,16.490000
1152.,16.500000
1153.,16.510000
1154.,16.520000
1155.,16.530001
1156.,16.540001
1157.,16.549999
1158.,16.559999
1159.,16.570000
1160.,16.580000
1161.,16.590000
1162.,16.600000
1163.,16.610001
1164.,16.620001
1165.,16.629999
1166.,16.639999
1167.,16.650000
1168.,16.660000
1169.,16.670000
1170.,16.680000
1171.,16.690001
1172.,16.700001
1173.,16.709999
1174.,16.719999
1175.,16.730000
1176.,16.740000
1177.,16.750000
1178.,16.760000
1179.,16.770000
1180.,16.780001
1181.,16.789999
1182.,16.799999
1183.,16.809999
1184.,16.820000
1185.,16.830000
1186.,16.840000
1187.,16.850000
1188.,16.860001
1189.,16.870001
1190.,16.879999
1191.,16.889999
1192.,16.900000
1193.,16.910000
1194.,16.920000
1195.,16.930000
1196.,16.940001
1197.,16.950001
1198.,16.959999
1199.,16.969999
1200.,16.980000
1201.,16.990000
1202.,17.000000
1203.,17.010000
1204.,17.020000
1205.,17.030001
1206.,17.039999
1207.,17.049999
1208.,17.059999
1209.,17.070000
1210.,17.080000
1211.,17.090000
1212.,17.100000
1213.,17.110001
1214.,17.120001
1215.,17.129999
1216.,17.139999
1217.,17.150000
1218.,17.160000
1219.,17.170000
1220.,17.180000
1221.,17.190001
1222.,17.200001
1223.,17.209999
1224.,17.219999
1225.,17.230000
1226.,17.240000
1227.,17.250000
1228.,17.260000
1229.,17.270000
1230.,17.280001
1231.,17.289999
1232.,17.299999
1233.,17.309999
1234.,17.320000
1235.,17.330000
1236.,17.340000
1237.,17.350000
1238.,17.360001
1239.,17.370001
1240.,17.379999
1241.,17.389999
1242.,17.400000
1243.,17.410000
1244.,17.420000
1245.,17.430000
1246.,17.440001
1247.,17.450001
1248.,17.459999
1249.,17.469999
1250.,17.480000
1251.,17.490000
1252.,17.500000
1253.,17.510000
1254.,17.520000
1255.,17.530001
1256.,17.539999
1257.,17.549999
1258.,17.559999
1259.,17.570000
1260.,17.580000
1261.,17.590000
1262.,17.600000
1263.,17.610001
1264.,17.620001
1265.,17.629999
1266.,17.639999
1267.,17.650000
1268.,17.660000
1269.,17.670000
1270.,17.680000
1271.,17.690001
1272.,17.700001
1273.,17.709999
1274.,17.719999
1275.,17.730000
1276.,17.740000
1277.,17.750000
1278.,17.760000
1279.,17.770000
1280.,17.780001
1281.,17.789999
1282.,17.799999
1283.,17.809999
1284.,17.820000
1285.,17.830000
1286.,17.840000
1287.,17.850000
1288.,17.860001
1289.,17.870001
1290.,17.879999
1291.,17.889999
1292.,17.900000
1293.,17.910000
1294.,17.920000
1295.,17.930000
1296.,17.940001
1297.,17.950001
1298.,17.959999
1299.,17.969999
1300.,17.980000
1301.,17.990000
1302.,18.000000
1303.,18.010000
1304.,18.020000
1305.,18.030001
1306.,18.039999
1307.,18.049999
1308.,18.059999
1309.,18.070000
1310.,18.080000
1311.,18.090000
1312.,18.100000
1313.,18.110001
1314.,18.120001
1315.,18.129999
1316.,18.139999
1317.,18.150000
1318.,18.160000
1319.,18.170000
1320.,18.180000
1321.,18.190001
1322.,18.200001
1323.,18.209999
1324.,18.219999
1325.,18.230000
1326.,18.240000
1327.,18.250000
1328.,18.260000
1329.,18.270000
1330.,18.280001
1331.,18.289999
1332.,18.299999
1333.,18.309999
1334.,18.320000
1335.,18.330000
1336.,18.340000
1337.,18.350000
1338.,18.360001
1339.,18.370001
1340.,18.379999
1341.,18.389999
1342.,18.400000
1343.,18.410000
1344.,18.420000
1345.,18.430000
1346.,18.440001
1347.,18.450001
1348.,18.459999
1349.,18.469999
1350.,18.480000
1351.,18.490000
1352.,18.500000
1353.,18.510000
1354.,18.520000
1355.,18.530001
1356.,18.539999
1357.,18.549999
1358.,18.559999
1359.,18.570000
1360.,18.580000
1361.,18.590000
1362.,18.600000
1363.,18.610001
1364.,18.620001
1365.,18.629999
1366.,18.639999
1367.,18.650000
1368.,18.660000
1369.,18.670000
1370.,18.680000
1371.,18.690001
1372.,18.700001
1373.,18.709999
1374.,18.719999
1375.,18.730000
1376.,18.740000
1377.,18.750000
1378.,18.760000
1379.,18.770000
1380.,18.780001
1381.,18.789999
1382.,18.799999
1383.,18.809999
1384.,18.820000
1385.,18.830000
1386.,18.840000
1387.,18.850000
1388.,18.860001
1389.,18.870001
1390.,18.879999
1391.,18.889999
1392.,18.900000
1393.,18.910000
1394.,18.920000
1395.,18.930000
1396.,18.940001
1397.,18.950001
1398.,18.959999
1399.,18.969999
1400.,18.980000
1401.,18.990000
1402.,19.000000
1403.,19.010000
1404.,19.020000
1405.,19.030001
1406.,19.039999
1407.,19.049999
1408.,19.059999
1409.,19.070000
1410.,19.080000
1411.,19.090000
1412.,19.100000
1413.,19.110001
1414.,19.120001
1415.,19.129999
1416.,19.139999
1417.,19.150000
1418.,19.160000
1419.,19.170000
1420.,19.180000
1421.,19.190001
1422.,19.200001
1423.,19.209999
1424.,19.219999
1425.,19.230000
1426.,19.240000
1427.,19.250000
1428.,19.260000
1429.,19.270000
1430.,19.280001
1431.,19.289999
1432.,19.299999
1433.,19.309999
1434.,19.320000
1435.,19.330000
1436.,19.340000
1437.,19.350000
1438.,19.360001
1439.,19.370001
1440.,19.379999
1441.,19.389999
1442.,19.400000
1443.,19.410000
1444.,19.420000
1445.,19.430000
1446.,19.440001
1447.,19.450001
1448.,19.459999
1449.,19.469999
1450.,19.480000
1451.,19.490000
1452.,19.500000
1453.,19.510000
1454.,19.520000
1455.,19.530001
1456.,19.539999
1457.,19.549999
1458.,19.559999
1459.,19.570000
1460.,19.580000
1461.,19.590000
1462.,19.600000
1463.,19.610001
1464.,19.620001
1465.,19.629999
1466.,19.639999
1467.,19.650000
1468.,19.660000
1469.,19.670000
1470.,19.680000
1471.,19.690001
1472.,19.700001
1473.,19.709999
1474.,19.719999
1475.,19.730000
1476.,19.740000
1477.,19.750000
1478.,19.760000
1479.,19.770000
1480.,19.780001
1481.,19.789999
1482.,19.799999
1483.,19.809999
1484.,19.820000
1485.,19.830000
1486.,19.840000
1487.,19.850000
1488.,19.860001
1489.,19.870001
1490.,19.879999
1491.,19.889999
1492.,19.900000
1493.,19.910000
1494.,19.920000
1495.,19.930000
1496.,19.940001
1497.,19.950001
1498.,19.959999
1499.,19.969999
1500.,19.980000
1501.,19.990000
1502.,20.000000
1503.,20.010000
1504.,20.020000
1505.,20.030001
1506.,20.039999
1507.,20.049999
1508.,20.059999
1509.,20.070000
1510.,20.080000
1511.,20.090000
1512.,20.100000
1513.,20.110001
1514.,20.119999
1515.,20.129999
1516.,20.139999
1517.,20.150000
1518.,20.160000
1519.,20.170000
1520.,20.180000
1521.,20.190001
1522.,20.200001
1523.,20.209999
1524.,20.219999
1525.,20.230000
1526.,20.240000
1527.,20.250000
1528.,20.260000
1529.,20.270000
1530.,20.280001
1531.,20.289999
1532.,20.299999
1533.,20.309999
1534.,20.320000
1535.,20.330000
1536.,20.340000
1537.,20.350000
1538.,20.360001
1539.,20.369999
1540.,20.379999
1541.,20.389999
1542.,20.400000
1543.,20.410000
1544.,20.420000
1545.,20.430000
1546.,20.440001
1547.,20.450001
1548.,20.459999
1549.,20.469999
1550.,20.480000
1551.,20.490000
1552.,20.500000
1553.,20.510000
1554.,20.520000
1555.,20.530001
1556.,20.539999
1557.,20.549999
1558.,20.559999
1559.,20.570000
1560.,20.580000
1561.,20.590000
1562.,20.600000
1563.,20.610001
1564.,20.619999
1565.,20.629999
1566.,20.639999
1567.,20.650000
1568.,20.660000
1569.,20.670000