%!PS-Adobe-3.0 EPSF-3.0
%%Title: overall.fig
%%Creator: fig2dev Version 3.2 Patchlevel 5d
%%CreationDate: Mon May 30 09:27:51 2016
%%For: amal029@AVINASHs-MBP (AVINASH MALIK)
%%BoundingBox: 0 0 710 311
%Magnification: 1.0000
%%EndComments
%%BeginProlog
/$F2psDict 200 dict def
$F2psDict begin
$F2psDict /mtrx matrix put
/col-1 {0 setgray} bind def
/col0 {0.000 0.000 0.000 srgb} bind def
/col1 {0.000 0.000 1.000 srgb} bind def
/col2 {0.000 1.000 0.000 srgb} bind def
/col3 {0.000 1.000 1.000 srgb} bind def
/col4 {1.000 0.000 0.000 srgb} bind def
/col5 {1.000 0.000 1.000 srgb} bind def
/col6 {1.000 1.000 0.000 srgb} bind def
/col7 {1.000 1.000 1.000 srgb} bind def
/col8 {0.000 0.000 0.560 srgb} bind def
/col9 {0.000 0.000 0.690 srgb} bind def
/col10 {0.000 0.000 0.820 srgb} bind def
/col11 {0.530 0.810 1.000 srgb} bind def
/col12 {0.000 0.560 0.000 srgb} bind def
/col13 {0.000 0.690 0.000 srgb} bind def
/col14 {0.000 0.820 0.000 srgb} bind def
/col15 {0.000 0.560 0.560 srgb} bind def
/col16 {0.000 0.690 0.690 srgb} bind def
/col17 {0.000 0.820 0.820 srgb} bind def
/col18 {0.560 0.000 0.000 srgb} bind def
/col19 {0.690 0.000 0.000 srgb} bind def
/col20 {0.820 0.000 0.000 srgb} bind def
/col21 {0.560 0.000 0.560 srgb} bind def
/col22 {0.690 0.000 0.690 srgb} bind def
/col23 {0.820 0.000 0.820 srgb} bind def
/col24 {0.500 0.190 0.000 srgb} bind def
/col25 {0.630 0.250 0.000 srgb} bind def
/col26 {0.750 0.380 0.000 srgb} bind def
/col27 {1.000 0.500 0.500 srgb} bind def
/col28 {1.000 0.630 0.630 srgb} bind def
/col29 {1.000 0.750 0.750 srgb} bind def
/col30 {1.000 0.880 0.880 srgb} bind def
/col31 {1.000 0.840 0.000 srgb} bind def

end

/cp {closepath} bind def
/ef {eofill} bind def
/gr {grestore} bind def
/gs {gsave} bind def
/sa {save} bind def
/rs {restore} bind def
/l {lineto} bind def
/m {moveto} bind def
/rm {rmoveto} bind def
/n {newpath} bind def
/s {stroke} bind def
/sh {show} bind def
/slc {setlinecap} bind def
/slj {setlinejoin} bind def
/slw {setlinewidth} bind def
/srgb {setrgbcolor} bind def
/rot {rotate} bind def
/sc {scale} bind def
/sd {setdash} bind def
/ff {findfont} bind def
/sf {setfont} bind def
/scf {scalefont} bind def
/sw {stringwidth} bind def
/tr {translate} bind def
/tnt {dup dup currentrgbcolor
  4 -2 roll dup 1 exch sub 3 -1 roll mul add
  4 -2 roll dup 1 exch sub 3 -1 roll mul add
  4 -2 roll dup 1 exch sub 3 -1 roll mul add srgb}
  bind def
/shd {dup dup currentrgbcolor 4 -2 roll mul 4 -2 roll mul
  4 -2 roll mul srgb} bind def
/$F2psBegin {$F2psDict begin /$F2psEnteredState save def} def
/$F2psEnd {$F2psEnteredState restore end} def

/pageheader {
save
newpath 0 311 moveto 0 0 lineto 710 0 lineto 710 311 lineto closepath clip newpath
-182.3 418.9 translate
1 -1 scale
$F2psBegin
10 setmiterlimit
0 slj 0 slc
 0.06000 0.06000 sc
} bind def
/pagefooter {
$F2psEnd
restore
} bind def
%%EndProlog
pageheader
%
% Fig objects follow
%
% 
% here starts figure with depth 50
/Helvetica-Bold ff 233.33 scf sf
4725 5505 m
gs 1 -1 sc (Validated controller) col0 sh gr
/Helvetica-Bold ff 200.00 scf sf
12150 4155 m
gs 1 -1 sc (Plant specification) col0 sh gr
/Helvetica-Bold ff 200.00 scf sf
11625 4575 m
gs 1 -1 sc (CFB interconnections of BFBs) col0 sh gr
% Polyline
0 slj
0 slc
15.000 slw
n 3075 3885 m 6225 3885 l 6225 4830 l 3075 4830 l
 cp gs col0 s gr 
/Helvetica-Bold ff 200.00 scf sf
3600 4110 m
gs 1 -1 sc (Controller validation) col0 sh gr
/Helvetica-Bold ff 200.00 scf sf
3225 4530 m
gs 1 -1 sc (Controller CFB || Plant CFB) col0 sh gr
% Polyline
n 3060 5700 m 6210 5700 l 6210 6645 l 3060 6645 l
 cp gs col0 s gr 
/Helvetica-Bold ff 200.00 scf sf
3585 5925 m
gs 1 -1 sc (Controller validation) col0 sh gr
/Helvetica-Bold ff 200.00 scf sf
3210 6345 m
gs 1 -1 sc (Controller CFB || Plant CFB) col0 sh gr
% Polyline
n 7350 3945 m 10500 3945 l 10500 4890 l 7350 4890 l
 cp gs col0 s gr 
/Helvetica-Bold ff 200.00 scf sf
7875 4170 m
gs 1 -1 sc (Controller design) col0 sh gr
/Helvetica-Bold ff 200.00 scf sf
7995 4590 m
gs 1 -1 sc (Controller CFB) col0 sh gr
% Polyline
n 11535 1860 m 14715 1860 l 14715 2655 l 11535 2655 l
 cp gs col0 s gr 
/Helvetica-Bold ff 200.00 scf sf
12060 2085 m
gs 1 -1 sc (Modular compilation) col0 sh gr
/Helvetica-Bold ff 200.00 scf sf
11940 2475 m
gs 1 -1 sc (BFB1 || BFB2 ||... BFBn) col0 sh gr
% Polyline
n 7305 1860 m 10440 1860 l 10440 2745 l 7305 2745 l
 cp gs col0 s gr 
/Helvetica-Bold ff 200.00 scf sf
7830 2085 m
gs 1 -1 sc (Plant specification) col0 sh gr
/Helvetica-Bold ff 200.00 scf sf
7350 2445 m
gs 1 -1 sc (SHIOA1 || SHIOA2 ||... SHIOAn) col0 sh gr
% Polyline
n 3090 1830 m 6195 1830 l 6195 2775 l 3090 2775 l
 cp gs col0 s gr 
/Helvetica-Bold ff 200.00 scf sf
3615 2130 m
gs 1 -1 sc (Plant specification) col0 sh gr
/Helvetica-Bold ff 200.00 scf sf
3270 2475 m
gs 1 -1 sc (HIOA1 || HIOA2 ||... HIOAn) col0 sh gr
% Polyline
gs  clippath
7021 2355 m 7305 2355 l 7305 2295 l 7021 2295 l 7021 2295 l 7171 2325 l 7021 2355 l cp
eoclip
n 6180 2325 m
 7290 2325 l gs col0 s gr gr

% arrowhead
45.000 slw
n 7021 2355 m 7171 2325 l 7021 2295 l 7051 2325 l 7021 2355 l 
 cp gs 0.00 setgray ef gr  col0 s
% Polyline
15.000 slw
gs  clippath
11281 2355 m 11565 2355 l 11565 2295 l 11281 2295 l 11281 2295 l 11431 2325 l 11281 2355 l cp
eoclip
n 10440 2325 m
 11550 2325 l gs col0 s gr gr

% arrowhead
45.000 slw
n 11281 2355 m 11431 2325 l 11281 2295 l 11311 2325 l 11281 2355 l 
 cp gs 0.00 setgray ef gr  col0 s
/Helvetica-Bold ff 233.33 scf sf
5640 3045 m
gs 1 -1 sc (\(1\)) col0 sh gr
/Helvetica-Bold ff 233.33 scf sf
9855 3000 m
gs 1 -1 sc (\(2\)) col0 sh gr
/Helvetica-Bold ff 233.33 scf sf
14145 2910 m
gs 1 -1 sc (\(3\)) col0 sh gr
% Polyline
15.000 slw
gs  clippath
13142 3660 m 13139 3944 l 13199 3945 l 13202 3661 l 13202 3661 l 13171 3811 l 13142 3660 l cp
eoclip
n 13185 2640 m
 13170 3930 l gs col0 s gr gr

% arrowhead
45.000 slw
n 13142 3660 m 13171 3811 l 13202 3661 l 13172 3691 l 13142 3660 l 
 cp gs 0.00 setgray ef gr  col0 s
% Polyline
15.000 slw
gs  clippath
10769 4350 m 10485 4350 l 10485 4410 l 10769 4410 l 10769 4410 l 10619 4380 l 10769 4350 l cp
eoclip
n 11610 4380 m
 10500 4380 l gs col0 s gr gr

% arrowhead
45.000 slw
n 10769 4350 m 10619 4380 l 10769 4410 l 10739 4380 l 10769 4350 l 
 cp gs 0.00 setgray ef gr  col0 s
% Polyline
15.000 slw
gs  clippath
6479 4365 m 6195 4365 l 6195 4425 l 6479 4425 l 6479 4425 l 6329 4395 l 6479 4365 l cp
eoclip
n 7335 4395 m
 6210 4395 l gs col0 s gr gr

% arrowhead
45.000 slw
n 6479 4365 m 6329 4395 l 6479 4425 l 6449 4395 l 6479 4365 l 
 cp gs 0.00 setgray ef gr  col0 s
% Polyline
15.000 slw
gs  clippath
4560 5416 m 4560 5700 l 4620 5700 l 4620 5416 l 4620 5416 l 4590 5566 l 4560 5416 l cp
eoclip
n 4590 4815 m
 4590 5685 l gs col0 s gr gr

% arrowhead
45.000 slw
n 4560 5416 m 4590 5566 l 4620 5416 l 4590 5446 l 4560 5416 l 
 cp gs 0.00 setgray ef gr  col0 s
% Polyline
15.000 slw
n 4583 5685 m 4598 5685 l gs col0 s gr
% Polyline
gs  clippath
8805 3661 m 8805 3945 l 8865 3945 l 8865 3661 l 8865 3661 l 8835 3811 l 8805 3661 l cp
eoclip
n 4515 3885 m 4515 3300 l 8835 3300 l
 8835 3930 l gs col0 s gr gr

% arrowhead
45.000 slw
n 8805 3661 m 8835 3811 l 8865 3661 l 8835 3691 l 8805 3661 l 
 cp gs 0.00 setgray ef gr  col0 s
/Helvetica-Bold ff 233.33 scf sf
14265 5145 m
gs 1 -1 sc (\(4\)) col0 sh gr
/Helvetica-Bold ff 233.33 scf sf
10005 5175 m
gs 1 -1 sc (\(5\)) col0 sh gr
/Helvetica-Bold ff 233.33 scf sf
5775 5085 m
gs 1 -1 sc (\(6\)) col0 sh gr
/Helvetica-Bold ff 233.33 scf sf
5700 6900 m
gs 1 -1 sc (\(7\)) col0 sh gr
/Helvetica-Bold ff 233.33 scf sf
5790 3585 m
gs 1 -1 sc (Refine controller) col0 sh gr
% Polyline
15.000 slw
n 11625 3930 m 14775 3930 l 14775 4875 l 11625 4875 l
 cp gs col0 s gr 
% here ends figure;
pagefooter
showpage
%%Trailer
%EOF
