# Fdb version 3
["pdflatex"] 1466568259 "scalability.tex" "scalability.pdf" "scalability" 1466568259
  "/macports-1.9.1/etc/texmf/texmf.cnf" 1437897066 30282 a0b3ffea1589dc5c5c0f32e4a1ec73ae ""
  "/macports-1.9.1/var/db/texmf/web2c/pdftex/pdflatex.fmt" 1437934682 725638 09cef3a21b9acaaecf0850d4223c7e07 ""
  "scalability.aux" 1466568259 8 a94a2480d3289e625eea47cd1b285758 ""
  "scalability.tex" 1466568254 1389 c591e8c67882c8dcb987d3db612186ca ""
  (generated)
  "scalability.log"
  "scalability.pdf"
